{
  "title" : "Camarada Meu Amigo",
  "author" : "Federico",
  "versos" : [
    {
        "bifrase" : ["camarada meu amigo,",
                     "boa viajem, bom destino,"]
    },
    {
        "bifrase" : ["vai andando teu caminho,"
                     , "firme, mas devagarinho,"]
    },
    {
        "bifrase" : ["e se achar dificuldade,"
                     , "não se perca na saudade,"]
    },
    {
        "bifrase" : ["se uma magoa te abraçar,"
                     , "nunca esqueça de lembrar,"]
    },
    {
        "bifrase" : ["fica com teu olho aberto,"
                     , "tem um amigo por perto,"]
    },
    {
        "bifrase" : ["onde seja que estiver,"
                     , "sempre vai poder lhe ver,"]
    },
    {
        "bifrase" : ["olha no teu coração,"
                     , "ahí tem sua canção,"]
    },
    {
        "bifrase" : ["aquí tem minha promesa,"
                     , "para que a amizade cresça,"]
    },
    {
        "bifrase" : ["quando precisar de mim,"
                     , "eu ja vou estar ali..."]
    },
    {
      "coro" : {
        "simples" : ["ie vica meu mano..."
                   , "ie viva amizade..."
                   , "que nos deu a capoeira..."
                   , "ela é pra vida inteira..."]
      }
    }
  ]
}
