{
    "title" : "Adeus Camarada Adeus",
    "author" : "Contra Mestre Rafael",
    "media" :{
        "youtube" : "hC88hwYzQhQ"
    },
    "versos" : [
        {
            "frases" : [
                { "bifrase" :
                  ["Adeus camarada adeus,"
                   ,"adeus que eu ja vou me embora."]
                } ,
                { "bifrase" :
                  ["Quem parte leva a saudade,"
                  , "quem fica soluça e chora."]
                }
            ]
        },
        {"coro" : {
            "frases" : [
                { "bifrase" :
                  ["Adeus camarada adeus,"
                   ,"adeus que eu ja vou me embora."]
                } ,
                { "bifrase" :
                  ["Quem parte leva a saudade,"
                  , "quem fica soluça e chora."]
                }
            ]
        }
        },
        {
            "frases" : [
                {"bifrase" :
                 ["Eu vou me embora ai meu bem vou me embora,"
                  ,"mais tão cedo eu volta."]},
                {"bifrase" :
                 ["Eu voy ver meu gado no pasto,"
                  ,"eu voy ver vaqueiro aboiar."]}
            ]
        },
        {"coro" : null},
        {
            "frases" : [
                {"bifrase" :
                 ["Vou me embora meu bem, vou me embora"
                  ,"Vou me embora como um passarinho"]},
                {"bifrase" :
                 ["Posi eu voy de galho em galho,"
                  ,"e también desmanchando o ninho"]}
            ]
        },
        {"coro" : null},
        {
            "frases" : [
                {"bifrase" :
                 ["Voy me embora meu bem, vou me embora,"
                  ,"voy me embora e vou volta"]
                },
                {"bifrase" :
                 ["Voy me embora eu voy pra Bahia,"
                  ,"que la pos é meu lugar"]}
            ]
        },
        {"coro" : null},
        { "frases" :
          [
              {"bifrase" :
               ["O linha que four avua,"
                ,"bateu com o peito meu bem na areia"]},
              {"bifrase" :
               ["Adeus meu povo todo,"
                ,"deixo saudade aqui nessa aldeia"]}
          ]
        },
        {"coro" : null},
        { "frases" :
          [
              {"bifrase" :
               ["Vou me embora meu bem, vou me embora,"
                ,"como disse a Jaçanã"]},
              {"bifrase" :
               ["Não cantamos tudo pos hoje deixo,"
                ,"o carinho pra depois de amanha"]}
          ]
        }
    ]
}
