{
    "title" : "Dendê Maré",
    "media" :{
        "youtube" : "QfAAdZFqmPo"
    },
    "chorus" : {
        "frases" : [
            {
                "bifrase" : [
                    "Ô Dendê",
                    "Dendê maré"
                ]
            },
                {"bifrase" : [
                    "Ô Dendê",
                    "Dendê maré"
                ]}
        ]
    },
    "versos" : [
        {
            "frases" : [
                {
                    "bifrase" : [
                        "Ô Dendê",
                        "Dendê maré"
                    ]
                },
                    {"bifrase" : [
                        "Ô Dendê",
                        "Dendê maré"
                    ]}
            ]
        },
        { "coro" : null},
        {
            "simples" : [
                "Pescador já foi pro mar",
                "Foi de encontro à maré",
                "Foi buscar o peixe bom",
                "Conforme a baiana quer"
            ]
        },
        {"coro" : null},
        {
            "simples" : [
                "ARREGLAR:",
                "Baiana prepare o peixe",
                "Pescador já vai pro mar",
                "Põe tempero na moqueca",
                "Dendê não pode faltar"
            ]
        },
        {"coro" : null},
        {
            "simples" : [
                "Eh que Totonho de maré",
                "Foi um grande jogador",
                "A onda balança o barco",
                "Como o Totonho balançou"
            ]
        },
        {"coro":null},
        {
            "simples" : [
                "Pescador que é pescador",
                "Sabe a hora de pescar",
                "Sabe segredos do rio",
                "E também do alto mar"
            ]
        },
        {"coro":null},
        {
            "simples" : [
                "Puxa puxa leva leva",
                "Puxa rede lá do mar",
                "Mas se for bom pescador",
                "O peixe não vai faltar"
            ]
        },
        {"coro" : null},
        {
            "simples" : [
                "É noite de lua cheia",
                "Pescador volto do mar",
                "Vai ter festa na aldeia",
                "Capoeira vai jogar"
                ]
        }
    ]
}
