{
    "title" : "É no balanço da angola",
    "author" : "M. Michel",
    "media" : {
        "youtube" : "D9LjycO4CRY"
    },
    "chorus" :
    {
        "frases" : [
            {"simples" : [
                "É no balanço da angola.",
                "É no balanço da angola.",
                "É no balanço da angola."
            ]}
            ,
            {"bifrase" : ["Que o corpo desvira"
                ,"Que o corpo desdobra"]
            }
        ]
    },
    "versos" : [
      {
        "frases" : [
            {"simples" : [
                "É no balanço da angola.",
                "É no balanço da angola.",
                "É no balanço da angola."
            ]},
            {"bifrase" : [
                "Que o corpo desvira"
                ,"Que o corpo desdobra"
            ]
            }
        ]
      },
      {"coro" : null},
        {
            "quverso" : [
                "Cuidado aí bateria,",
                "pra não perder a cadência.",
                "Se não o jogo se embola,",
                "e vira conversa jogada fora."
            ]
        },
      {"coro" : null},
        {"frases" : [
            {"bifrase" : [
                "Você que é Capoeira,",
                "e vai entrar nessa roda."]},
            {"bifrase" : [
                "Peça licença pro mestre,",
                "Siga os mandamentos, e vamos simbora."]}
        ]},
      {"coro" : null},
        {"simples" : [
            "Um salve pro seu Pastinha,",
            "João Pequeno e João Grande,",
            "pra seu Bobó e Boca Rica",
            "que fazem parte dessa história."
        ]},
      {"coro" : null},
        {"frases" : [
            {"simples" : [
                "Viva toda a saudade",
                "Viva toda a emoção"
                ]
            },
            {"bifrase" : [
                "Dos momentos eternos",
                "Gravados no coração."]}
        ]},
      {"coro" : null}
    ]
}
