{
    "title" : "Misturou",
    "author" : "M. Toni Vargas",
    "media" : {
        "youtube" : "RSq1W75_ehw"
    },
    "versos" : [
        {
            "quverso" :
            [
                "Berimbau chorou no terreiro",
                "Sinhazinha correu pra escutar",
                "Berimbau falou de um guerreiro",
                "Que os negro ia libertar"
            ]
        },
        {
            "quverso" :
            [
                "Ele vem vestido com a noite",
                "As estrelas à lhe iluminar",
                "Tem a força do mar nas entranhas",
                "E o poder dado por orixás"
            ]
        },
        {
            "quverso" :
            [
                "Sinhazinha tremeu assustada",
                "Sem saber se ainda ficava ali",
                "Berimbau então silenciou",
                "E no terreiro apareceu Zumbi"
            ]
        },
        {
            "bifrase" : ["Foi Zumbi", "no terreiro apareceu Zumbi"]
        },
        {"coro" : {"frase" : "Foi zumbi"}},
        {"frase" : "no terreiro apareceu Zumbi"},
        {"coro" : {"frase" : "Foi zumbi"}},
        {
            "quverso" :
            [
                "Sinhazinha tombou de joelhos",
                "O rei negro então a possuiu",
                "A noite fez-se fogo e o negro",
                "Assim como veio partiu"
            ]
        },
        {
            "quverso" :
            [
                "Deixou a semente da raça",
                "No ventre da terra Brasil",
                "Misturou, misturou",
                "Que pensar que é só branco se enganou"
            ]
        },
        {"coro" : {"frase" : "Misturou, misturou"}},
        {"frase" : "Branco, negro e índio misturou"},
        {"coro" : {"frase" : "Misturou, misturou"}},
        {"frase" : "A semente da raça misturou"},
        {"coro" : {"frase" : "Misturou, misturou"}},
        {"frase" : "Quem pensar que é só branco se enganou"},
        {"coro" : {"frase" : "Misturou, misturou"}},
        {
            "quverso" :
            [
                "Sinhazinha tombou de joeljos",
                "O rei negro então a possuiu",
                "A noite fez-se fogo e o negro",
                "Assim como veio partiu"
            ]
        },
        {
            "quverso" :
            [
                "Deixou a semente da raça",
                "No ventre da terra Brasil",
                "Misturou, misturou",
                "Que pensar que é só branco se enganou"
            ]
        },
        {"coro" : null},
        {"frase" : "Branco, negro e índio misturou"},
        {"coro" : null},
        {"frase" : "A semente da raça misturou"},
        {"coro" : null},
        {"frase" : "Quem pensar que é só branco se enganou"},
        {"coro" : null},
        {"frase" : "No Brasil foi que tudo misturou"},
        {"coro" : null}
    ]
}
