{
    "title" : "Vou Chamar Pra Angola Vir",
    "media" : {
        "youtube" : "e4w2FbqIazM"
    },
    "chorus" : {
        "bifrase" : [
            "Vou chamar pra Angola vir,",
            "vou chamar pra Angola"
        ]
    },
    "versos" : [
        {
            "bifrase" : [
                "Vou chamar pra Angola vir,",
                "vou chamar pra Angola"
            ]
        },
        {"coro" : null},
        {
            "bifrase" : [
                "Vou chamar mestre pastinha",
                "pra essa roda abençoar"
            ]
        },
        {"coro" : null},
        {
            "bifrase" : [
                "Vou chamar força da terra",
                "vou chamar força do mar"
            ]
        },
        {"coro" : null},
        {
            "bifrase" : [
                "Vou chamar Cobrinha verde",
                "e o saudoso Waldemar"
            ]
        },
        {"coro" : null},
        {
            "bifrase" : [
                "Bom Jesus dos navegantes",
                "só navega pelo mar"
            ]
        },
        {"coro" : null},
        {
            "bifrase" : [
                "Vou chamar povo daqui,",
                "vou chamar povo de lá"
            ]
        }
    ]
}
